// write your code here
var x = 3;
var y = 2;
y = x;
print(x,y);
//print(y);
//print(z);

var img = new SimpleImage("chapel.png");
print(img);
print(img.getWidth(),img.getHeight());
print(img.getPixel(10,20));
print(img.getRed(10,20));

function square(x){
    return x * x;
}

var a = square(7);
print(a);

function cube(y){
    return y * y * y;
}

var b = cube(3);
print(b);

function add(a,b,c){
    return a + b + c;
}

var x = add(54,1,2);
print(x);

var a = 'karnav';
var b = ' shah';

function concatination(a,b){
    return a + b;
}

var c = concatination(a,b);
print(c);
